{
  "total": 3664287,
  "offset": 0,
  "next": 5,
  "data": [
    {
      "paperId": "f3d594544126e202dbd81c186ca3ce448af5255c",
      "url": "https://www.semanticscholar.org/paper/f3d594544126e202dbd81c186ca3ce448af5255c",
      "title": "Quantum Computing in the NISQ era and beyond",
      "venue": "Quantum",
      "year": 2018,
      "authors": [
        {
          "authorId": "2313130",
          "name": "J. Preskill"
        }
      ]
    },
    {
      "paperId": "204008df9e9d4e6499f48add49291c12f3aa1ffc",
      "url": "https://www.semanticscholar.org/paper/204008df9e9d4e6499f48add49291c12f3aa1ffc",
      "title": "A Review of Barren Plateaus in Variational Quantum Computing",
      "venue": "Nature Reviews Physics",
      "year": 2024,
      "authors": [
        {
          "authorId": "103560141",
          "name": "Mart\u00edn Larocca"
        },
        {
          "authorId": "148151137",
          "name": "Supanut Thanasilp"
        },
        {
          "authorId": "1840065439",
          "name": "Samson Wang"
        },
        {
          "authorId": "2287634950",
          "name": "Kunal Sharma"
        },
        {
          "authorId": "2294573953",
          "name": "Jacob Biamonte"
        },
        {
          "authorId": "2267922162",
          "name": "Patrick J. Coles"
        },
        {
          "authorId": "49556529",
          "name": "L. Cincio"
        },
        {
          "authorId": "1933508",
          "name": "J. McClean"
        },
        {
          "authorId": "2274105819",
          "name": "Zoe Holmes"
        },
        {
          "authorId": "2192840743",
          "name": "M. Cerezo"
        }
      ]
    },
    {
      "paperId": "3519dc42599631579823d3d3746fe1ae2a02ab61",
      "url": "https://www.semanticscholar.org/paper/3519dc42599631579823d3d3746fe1ae2a02ab61",
      "title": "A versatile single-photon-based quantum computing platform",
      "venue": "Nature Photonics",
      "year": 2024,
      "authors": [
        {
          "authorId": "29923077",
          "name": "N. Maring"
        },
        {
          "authorId": "2078675007",
          "name": "A. Fyrillas"
        },
        {
          "authorId": "2150136635",
          "name": "M. Pont"
        },
        {
          "authorId": "2293856716",
          "name": "Edouard Ivanov"
        },
        {
          "authorId": "2310999368",
          "name": "Petr Stepanov"
        },
        {
          "authorId": "2199747102",
          "name": "N. Margaria"
        },
        {
          "authorId": "2294854278",
          "name": "W. Hease"
        },
        {
          "authorId": "2293857122",
          "name": "A. Pishchagin"
        },
        {
          "authorId": "2240949782",
          "name": "Aristide Lema\u00eetre"
        },
        {
          "authorId": "2237843667",
          "name": "Isabelle Sagnes"
        },
        {
          "authorId": "10690308",
          "name": "Thi Huong Au"
        },
        {
          "authorId": "2199744594",
          "name": "S. Boissier"
        },
        {
          "authorId": "2293860423",
          "name": "Eric Bertasi"
        },
        {
          "authorId": "2218818421",
          "name": "Aur'elien Baert"
        },
        {
          "authorId": "2218699374",
          "name": "Mario Valdivia"
        },
        {
          "authorId": "88015229",
          "name": "Marie Billard"
        },
        {
          "authorId": "2218699368",
          "name": "Ozan Acar"
        },
        {
          "authorId": "12525641",
          "name": "A. Brieussel"
        },
        {
          "authorId": "103146051",
          "name": "Rawad Mezher"
        },
        {
          "authorId": "50124615",
          "name": "S. Wein"
        },
        {
          "authorId": "11881973",
          "name": "A. Salavrakos"
        },
        {
          "authorId": "2218701446",
          "name": "Patrick Sinnott"
        },
        {
          "authorId": "2277446296",
          "name": "D. Fioretto"
        },
        {
          "authorId": "88251701",
          "name": "P. Emeriau"
        },
        {
          "authorId": "2238096596",
          "name": "N. Belabas"
        },
        {
          "authorId": "2262781720",
          "name": "S. Mansfield"
        },
        {
          "authorId": "47627363",
          "name": "P. Senellart"
        },
        {
          "authorId": "48530805",
          "name": "J. Senellart"
        },
        {
          "authorId": "47979664",
          "name": "N. Somaschi"
        }
      ]
    },
    {
      "paperId": "ed1c8676a7c13421afa315af9702fad182ee2347",
      "url": "https://www.semanticscholar.org/paper/ed1c8676a7c13421afa315af9702fad182ee2347",
      "title": "Quantum computing with Qiskit",
      "venue": "arXiv.org",
      "year": 2024,
      "authors": [
        {
          "authorId": "1403854898",
          "name": "Ali Javadi-Abhari"
        },
        {
          "authorId": "71208381",
          "name": "Matthew Treinish"
        },
        {
          "authorId": "98912691",
          "name": "Kevin Krsulich"
        },
        {
          "authorId": "2301240440",
          "name": "Christopher J. Wood"
        },
        {
          "authorId": "2301204317",
          "name": "Jake Lishman"
        },
        {
          "authorId": "2301204676",
          "name": "Julien Gacon"
        },
        {
          "authorId": "1842802",
          "name": "S. Martiel"
        },
        {
          "authorId": "48029557",
          "name": "P. Nation"
        },
        {
          "authorId": "2268905005",
          "name": "Lev S. Bishop"
        },
        {
          "authorId": "2274761369",
          "name": "Andrew W. Cross"
        },
        {
          "authorId": "2301493576",
          "name": "Blake R. Johnson"
        },
        {
          "authorId": "34654804",
          "name": "J. Gambetta"
        }
      ]
    },
    {
      "paperId": "867170876dff8379701023591883ad9609653210",
      "url": "https://www.semanticscholar.org/paper/867170876dff8379701023591883ad9609653210",
      "title": "Evolution of Quantum Computing: Theoretical and Innovation Management Implications for Emerging Quantum Industry",
      "venue": "IEEE transactions on engineering management",
      "year": 2024,
      "authors": [
        {
          "authorId": "35082301",
          "name": "M. Coccia"
        },
        {
          "authorId": "40284695",
          "name": "S. Roshani"
        },
        {
          "authorId": "2123638588",
          "name": "M. Mosleh"
        }
      ]
    }
  ]
}