{
  "total": 24786,
  "offset": 0,
  "next": 5,
  "data": [
    {
      "paperId": "f9291663678305feb82276896a96ff5332102623",
      "url": "https://www.semanticscholar.org/paper/f9291663678305feb82276896a96ff5332102623",
      "title": "Brexit: Trade Diversion Due to Trade Policy Uncertainty",
      "venue": "Social Science Research Network",
      "year": 2024,
      "fieldsOfStudy": null,
      "authors": [
        {
          "authorId": "1741110523",
          "name": "Eduardo Guti\u00e9rrez Chac\u00f3n"
        },
        {
          "authorId": "91382665",
          "name": "Aitor Lacuesta"
        },
        {
          "authorId": "144134309",
          "name": "C\u00e9sar Mart\u00edn"
        }
      ]
    },
    {
      "paperId": "04f2ce0658f21fb6051f59f40b75bf85848532f6",
      "url": "https://www.semanticscholar.org/paper/04f2ce0658f21fb6051f59f40b75bf85848532f6",
      "title": "Trump, Brexit, and the Rise of Populism: Economic Have-Nots and Cultural Backlash",
      "venue": "",
      "year": 2016,
      "fieldsOfStudy": [
        "Political Science"
      ],
      "authors": [
        {
          "authorId": "47361788",
          "name": "R. Inglehart"
        },
        {
          "authorId": "145639179",
          "name": "P. Norris"
        }
      ]
    },
    {
      "paperId": "3a129cdcb104d5e15018fa0c75390ab640007160",
      "url": "https://www.semanticscholar.org/paper/3a129cdcb104d5e15018fa0c75390ab640007160",
      "title": "Cultural backlash: Trump, Brexit, and authoritarian populism",
      "venue": "Democratization",
      "year": 2019,
      "fieldsOfStudy": [
        "Political Science"
      ],
      "authors": [
        {
          "authorId": "144418520",
          "name": "Kenneth Bunker"
        }
      ]
    },
    {
      "paperId": "f6b1658e2ac85a009d0161c214cdfb2a877785b0",
      "url": "https://www.semanticscholar.org/paper/f6b1658e2ac85a009d0161c214cdfb2a877785b0",
      "title": "Shocks, resilience and regional industry policy: Brexit and the automotive sector in two Midlands regions",
      "venue": "",
      "year": 2023,
      "fieldsOfStudy": [
        "Medicine"
      ],
      "authors": [
        {
          "authorId": "2057421653",
          "name": "David Bailey"
        },
        {
          "authorId": "1752554855",
          "name": "A. de Ruyter"
        },
        {
          "authorId": "121911602",
          "name": "D. Hearne"
        },
        {
          "authorId": "1404795276",
          "name": "R. Ortega-Argil\u00e9s"
        }
      ]
    },
    {
      "paperId": "b5151983cda637eb17a3ab8f98ca4e576dfb2560",
      "url": "https://www.semanticscholar.org/paper/b5151983cda637eb17a3ab8f98ca4e576dfb2560",
      "title": "The Impact of Government Policy Responses to the COVID\u201019 Pandemic and Brexit on the UK Financial Market: A Behavioural Perspective",
      "venue": "British Journal of Management",
      "year": 2023,
      "fieldsOfStudy": [
        "Medicine"
      ],
      "authors": [
        {
          "authorId": "152596990",
          "name": "A. Paterson"
        },
        {
          "authorId": "1397093982",
          "name": "Rilwan Sakariyahu"
        },
        {
          "authorId": "1663998652",
          "name": "Rodiat Lawal"
        },
        {
          "authorId": "2139673625",
          "name": "Adedayo Alabi"
        }
      ]
    }
  ]
}